<svg width="174" height="203" viewBox="0 0 174 203" fill="none" xmlns="http://www.w3.org/2000/svg">
<path d="M4.4401 53.3003L87 5.14033L169.56 53.3003V149.7L87 197.86L4.4401 149.7V53.3003Z" fill="url(#paint0_linear_1033_87)" fill-opacity="0.1" stroke="white" stroke-width="8.88021" stroke-linejoin="round"/>
<path d="M126.034 78.6888C124.692 76.6756 121.896 76.2283 119.995 77.5704C117.981 78.9125 117.422 81.8204 118.876 83.8336C124.021 91.1034 126.705 100.275 125.81 110.005C124.133 128.459 109.258 143.334 90.8035 145.124C66.4216 147.473 45.8424 127.229 47.9674 102.847C49.6451 83.0507 66.3098 67.6163 86.106 67.1689V74.3269C86.106 76.8993 89.014 78.4651 91.139 77.123L109.593 65.6031C111.718 64.261 111.718 61.2412 109.593 60.011L91.139 48.4911C88.9021 47.149 86.106 48.7148 86.106 51.2872V58.4451C62.1715 58.7807 42.2634 76.4519 39.3555 100.386C35.7765 130.137 59.711 155.413 89.1258 154.183C113.508 153.065 133.528 133.268 134.758 108.887C135.317 97.5903 131.962 87.1889 126.034 78.6888Z" fill="white"/>
<defs>
<linearGradient id="paint0_linear_1033_87" x1="87" y1="0" x2="87" y2="203" gradientUnits="userSpaceOnUse">
<stop stop-color="white"/>
<stop offset="1" stop-color="white" stop-opacity="0"/>
</linearGradient>
</defs>
</svg>
